BSMM-lab-3
…
• Centering for: light_rum, lemon_juice, lime_juice, ... | Trained

• Scaling for: light_rum, lemon_juice, lime_juice, ... | Trained

• PCA extraction with: light_rum, lemon_juice, lime_juice, ... | Trained

40 predictor variables are prepped by the recipe.

Exercise 4

# Finding the most used ingredient
aq_step_prep %>% recipes::tidy(1) %>% dplyr::arrange(desc(value))

# A tibble: 80 × 4
   terms            statistic value id             
   <chr>            <chr>     <dbl> <chr>          
 1 orange_juice     sd        0.776 normalize_6tHjf
 2 gin              sd        0.564 normalize_6tHjf
 3 light_rum        sd        0.477 normalize_6tHjf
 4 vodka            sd        0.476 normalize_6tHjf
 5 lemon_juice      sd        0.451 normalize_6tHjf
 6 blanco_tequila   sd        0.407 normalize_6tHjf
 7 lime_juice       sd        0.389 normalize_6tHjf
 8 bourbon_whiskey  sd        0.374 normalize_6tHjf
 9 grapefruit_juice sd        0.373 normalize_6tHjf
10 brandy           sd        0.357 normalize_6tHjf
# ℹ 70 more rows

aq_step_prep_n2 %>% recipes::tidy(1) %>% dplyr::arrange(desc(value))

# A tibble: 40 × 3
   terms           value id          
   <chr>           <dbl> <chr>       
 1 gin            0.252  center_AqwDH
 2 lemon_juice    0.229  center_AqwDH
 3 orange_juice   0.185  center_AqwDH
 4 vodka          0.168  center_AqwDH
 5 light_rum      0.161  center_AqwDH
 6 lime_juice     0.138  center_AqwDH
 7 blanco_tequila 0.110  center_AqwDH
 8 brandy         0.0990 center_AqwDH
 9 dry_vermouth   0.0942 center_AqwDH
10 powdered_sugar 0.0891 center_AqwDH
# ℹ 30 more rows
…
